<?xml version="1.0" encoding="UTF-8" standalone="no"?>
<!-- Created with Inkscape (http://www.inkscape.org/) -->

<svg
   xmlns:osb="http://www.openswatchbook.org/uri/2009/osb"
   xmlns:dc="http://purl.org/dc/elements/1.1/"
   xmlns:cc="http://creativecommons.org/ns#"
   xmlns:rdf="http://www.w3.org/1999/02/22-rdf-syntax-ns#"
   xmlns:svg="http://www.w3.org/2000/svg"
   xmlns="http://www.w3.org/2000/svg"
   xmlns:xlink="http://www.w3.org/1999/xlink"
   xmlns:sodipodi="http://sodipodi.sourceforge.net/DTD/sodipodi-0.dtd"
   xmlns:inkscape="http://www.inkscape.org/namespaces/inkscape"
   inkscape:export-ydpi="96"
   inkscape:export-xdpi="96"
   inkscape:export-filename="/home/peter/data/Nextcloud/Projects/Drawing/logos/stp/systemtestportal-sharp.svg.png"
   sodipodi:docname="STP-Logo-new.svg"
   inkscape:version="0.92.2 5c3e80d, 2017-08-06"
   id="stp-logo"
   version="1.1"
   viewBox="0 0 98.801094 98.801094"
   height="98.801094mm"
   width="98.801094mm">
  <defs
     id="defs">
    <linearGradient
       id="c-fill"
       osb:paint="solid">
      <stop
         style="stop-color:#ffffff;stop-opacity:1;"
         offset="0"
         id="stop6020" />
    </linearGradient>
    <linearGradient
       id="c-checkmark"
       osb:paint="solid">
      <stop
         style="stop-color:#13587a;stop-opacity:1;"
         offset="0"
         id="stop6006" />
    </linearGradient>
    <linearGradient
       id="c-spiral"
       osb:paint="solid">
      <stop
         style="stop-color:#9cd4f0;stop-opacity:1;"
         offset="0"
         id="stop6000" />
    </linearGradient>
    <inkscape:path-effect
       effect="powerstroke"
       id="spiral_stroke"
       is_visible="true"
       offset_points="1.1562643,5.4525759 | 2.7935317,6.0297678 | 3.530239,6.6301694"
       sort_points="true"
       interpolator_type="CubicBezierFit"
       interpolator_beta="0.2"
       start_linecap_type="butt"
       linejoin_type="extrp_arc"
       miter_limit="4"
       end_linecap_type="zerowidth" />
    <path
       id="spiral_part"
       class="spiral"
       d="m 91.734899,141.3415 c 0.299745,-0.40886 0.251286,-0.26926 0.228549,-0.26425 -0.02603,0.006 0.122096,-0.0291 0.442049,0.081 0.399073,0.13737 0.851989,0.42123 1.250792,0.81225 0.450323,0.44154 0.718423,0.90408 0.845404,1.26189 0.0468,0.13187 0.08127,0.26781 0.10297,0.40605 0.122223,0.17771 0.23875,0.35927 0.349403,0.54441 1.112076,1.86063 1.58028,4.00096 1.434559,6.12957 -0.127397,1.86093 -0.756067,4.03132 -2.229505,5.97475 0,0 -0.0012,0.002 -0.0012,0.002 -0.02285,0.0332 -0.04581,0.0663 -0.0689,0.0994 -1.280393,1.83248 -2.963761,3.45601 -5.115876,4.77599 -1.881172,1.1538 -4.159495,2.09707 -6.832885,2.69114 -2.739243,0.6087 -5.879067,0.84354 -9.225083,0.54034 -2.194132,-0.19882 -4.323578,-0.6968 -6.289171,-1.39438 l 0.04355,0.0126 c -6.663571,-2.28043 -12.123981,-6.98986 -16.597874,-12.49353 -0.274571,-0.33777 -0.546204,-0.67947 -0.814933,-1.02483 -4.189301,-5.38389 -7.203044,-11.98738 -8.372943,-18.93419 0.598784,3.55555 1.680125,7.01273 3.214074,10.27579 -1.477136,-3.34987 -2.561024,-6.85966 -3.229968,-10.45911 -1.734178,-9.33125 -0.661394,-19.22676 3.018755,-28.49722 C 47.553758,92.643599 53.791009,84.118447 62.1276,77.864617 52.989133,82.844723 45.070161,90.42956 39.492445,99.684509 33.931407,108.91179 30.655369,119.90036 31.123134,131.40798 l -0.01589,-0.18331 c -0.09764,8.84773 2.381052,17.91982 7.192426,25.73976 0.309086,0.50236 0.629761,0.99822 0.961682,1.48714 5.521371,8.13309 13.964504,14.11975 23.866728,16.67804 0.03607,0.009 0.07215,0.0186 0.108243,0.0278 0,0 -0.06469,-0.0153 -0.06469,-0.0153 2.867667,0.67838 5.850713,1.08954 8.842035,1.27966 4.565768,0.29019 8.928756,-0.13182 12.858012,-1.11336 3.8477,-0.96116 7.303315,-2.46146 10.29061,-4.40021 3.440745,-2.23304 6.20452,-5.00904 8.30341,-8.1583 l -0.0701,0.101 c 2.77848,-4.03906 3.83594,-8.3687 3.98702,-11.97938 0.16746,-4.00206 -0.71789,-8.14993 -2.84782,-11.8753 -0.72027,-1.74747 -1.82582,-3.38901 -3.24593,-4.78669 -1.347224,-1.32594 -3.136012,-2.58121 -5.292883,-3.33592 -1.853234,-0.64847 -4.256945,-1.0131 -6.823178,-0.33469 -2.30991,0.61065 -4.519132,2.0179 -6.232667,4.35519 z"
       inkscape:path-effect="#spiral_stroke"
       inkscape:connector-curvature="0" />
  </defs>
  <sodipodi:namedview
     id="base"
     pagecolor="#ffffff"
     bordercolor="#666666"
     borderopacity="1.0"
     inkscape:pageopacity="0.0"
     inkscape:pageshadow="2"
     inkscape:zoom="1.4955"
     inkscape:cx="544.69991"
     inkscape:cy="180.28042"
     inkscape:document-units="mm"
     inkscape:current-layer="l_checkbox"
     showgrid="true"
     inkscape:snap-text-baseline="true"
     inkscape:snap-center="true"
     inkscape:window-width="1680"
     inkscape:window-height="1005"
     inkscape:window-x="0"
     inkscape:window-y="1"
     inkscape:window-maximized="1"
     inkscape:pagecheckerboard="true"
     showguides="true"
     inkscape:guide-bbox="true"
     fit-margin-top="0"
     fit-margin-left="0"
     fit-margin-right="0"
     fit-margin-bottom="0">
    <sodipodi:guide
       position="49.400548,49.400547"
       orientation="1,0"
       id="guide4821"
       inkscape:locked="false" />
  </sodipodi:namedview>
  <metadata
     id="metadata5">
    <rdf:RDF>
      <cc:Work
         rdf:about="">
        <dc:format>image/svg+xml</dc:format>
        <dc:type
           rdf:resource="http://purl.org/dc/dcmitype/StillImage" />
        <dc:title></dc:title>
      </cc:Work>
    </rdf:RDF>
  </metadata>
  <g
     inkscape:label="Spiral"
     inkscape:groupmode="layer"
     id="l_portal"
     style="display:inline"
     transform="translate(-47.395881,-81.112781)">
    <use
       xlink:href="#spiral_part"
       transform="matrix(0.86697101,-0.0675223,0.07433267,0.84226735,11.880405,20.078588)"
       id="spiral_part-1"
       style="fill:url(#c-spiral);fill-opacity:1;stroke:url(#c-spiral)"
       x="0"
       y="0"
       width="100%"
       height="100%" />
    <use
       xlink:href="#spiral_part"
       transform="matrix(-0.87118048,0.0675223,-0.07469358,-0.84226736,182.23182,240.94807)"
       id="spiral_part-2"
       style="fill:url(#c-spiral);fill-opacity:1;stroke:url(#c-spiral)"
       x="0"
       y="0"
       width="100%"
       height="100%" />
    <use
       xlink:href="#spiral_part"
       transform="matrix(-0.0675223,-0.86264,0.84226736,-0.07396134,-13.638313,214.89499)"
       id="spiral_part-3"
       style="fill:url(#c-spiral);fill-opacity:1;stroke:url(#c-spiral)"
       x="0"
       y="0"
       width="100%"
       height="100%" />
    <use
       xlink:href="#spiral_part"
       transform="matrix(0.0675223,0.84592365,-0.84226736,0.0725281,207.23117,48.194153)"
       id="spiral_part-4"
       style="fill:url(#c-spiral);fill-opacity:1;stroke:url(#c-spiral)"
       x="0"
       y="0"
       width="100%"
       height="100%" />
  </g>
  <g
     inkscape:groupmode="layer"
     id="l_checkbox"
     inkscape:label="Checkbox"
     transform="translate(-47.395881,-81.112781)">
    <g
       style="display:inline"
       id="checkbox"
       transform="matrix(0.94565987,0,0,0.96193953,10.730129,-4.1027483)">
      <ellipse
         ry="16.529755"
         rx="17.206413"
         cy="138.13753"
         cx="93.033279"
         id="checkbox_circle"
         style="opacity:1;fill:url(#c-fill);fill-opacity:1;fill-rule:evenodd;stroke:url(#c-checkmark);stroke-width:2.5404582;stroke-linecap:round;stroke-linejoin:miter;stroke-miterlimit:4;stroke-dasharray:none;stroke-opacity:1" />
      <path
         sodipodi:nodetypes="ccccccc"
         inkscape:connector-curvature="0"
         id="checkmark"
         d="m 106.9722,109.36036 -15.960303,30.58199 c -5.484793,-3.39166 -10.969586,-6.78332 -16.45438,-10.17498 l -2.5567,7.67709 22.759221,12.39118 19.305692,-37.397 z"
         style="fill:url(#c-checkmark);fill-opacity:1;stroke:none;stroke-width:0.26458332px;stroke-linecap:butt;stroke-linejoin:miter;stroke-opacity:1" />
    </g>
  </g>
</svg>
